# Export of SampleScene
# from Aaro4130 OBJ Exporter v2.0
mtllib greengem.mtl
g BlueCrystal09_0
v -0.07018752 -0.3545701 -0.09165252
v 0.07425747 -0.4279851 0.1577326
v 0.2207775 0.2048551 -0.1173476
v -0.01177254 0.02002997 -0.2804676
v -0.01033249 -0.3285501 0.2804676
v -0.01177254 0.02002997 -0.2804676
v -0.2111176 -0.3147451 -0.04105751
v -0.2207775 -0.3105151 0.1877376
v -0.1388175 0.180275 -0.1080926
v -0.01177254 0.02002997 -0.2804676
v -0.2207775 -0.3105151 0.1877376
v -0.05661754 0.3686101 -0.04840256
v -0.01177254 0.02002997 -0.2804676
v 0.1540625 0.3542451 -0.1390576
v 0.09085751 0.4279851 -0.07409761
v -0.05661754 0.3686101 -0.04840256
v -0.01177254 0.02002997 -0.2804676
v 0.09085751 0.4279851 -0.07409761
v 0.1071375 0.2900851 0.07617246
v -0.05661754 0.3686101 -0.04840256
v 0.09085751 0.4279851 -0.07409761
v -0.01033249 -0.3285501 0.2804676
v 0.2207775 0.2048551 -0.1173476
v 0.1540625 0.3542451 -0.1390576
vn 0.1198037 -0.3655314 -0.4305429
vn 0.5647534 -0.1090017 0.05005535
vn 0.5594304 0.03400459 -0.1386164
vn -0.01252853 -0.05507943 -0.5745804
vn 0.2193395 0.1360264 0.5164497
vn -0.01252853 -0.05507943 -0.5745804
vn -0.4516456 -0.2973253 -0.2023543
vn -0.4680752 0.07967734 0.3284668
vn -0.5034984 0.2024732 -0.1970463
vn -0.01252853 -0.05507943 -0.5745804
vn -0.4680752 0.07967734 0.3284668
vn -0.370849 0.4420974 0.01882243
vn -0.01252853 -0.05507943 -0.5745804
vn 0.3249922 0.3630975 -0.3096347
vn 0.100167 0.5661891 -0.05224857
vn -0.370849 0.4420974 0.01882243
vn -0.01252853 -0.05507943 -0.5745804
vn 0.100167 0.5661891 -0.05224857
vn 0.2071493 0.2619966 0.4709356
vn -0.370849 0.4420974 0.01882243
vn 0.100167 0.5661891 -0.05224857
vn 0.2193395 0.1360264 0.5164497
vn 0.5594304 0.03400459 -0.1386164
vn 0.3249922 0.3630975 -0.3096347
vt 0.1522 0.6914
vt 0.2012 0.6605
vt 0.23 0.778
vt 0.1615 0.7629
vt 0.2388 0.6585
vt 0.1615 0.7629
vt 0.1199 0.693
vt 0.0994 0.6581
vt 0.1106 0.7749
vt 0.1615 0.7629
vt 0.0734 0.6855
vt 0.092 0.8062
vt 0.1615 0.7629
vt 0.2261 0.8058
vt 0.2222 0.8253
vt 0.092 0.8062
vt 0.1615 0.7629
vt 0.1092 0.8297
vt 0.0495 0.7959
vt 0.092 0.8062
vt 0.0641 0.8285
vt 0.0265 0.6902
vt 0.002 0.8058
vt 0.0265 0.8313
usemtl BlueCrystal
f 3/3/3 2/2/2 1/1/1
f 4/4/4 3/3/3 1/1/1
f 2/2/2 3/3/3 5/5/5
f 1/1/1 7/7/7 6/6/6
f 1/1/1 8/8/8 7/7/7
f 10/10/10 7/7/7 9/9/9
f 9/9/9 7/7/7 11/11/11
f 9/9/9 11/11/11 12/12/12
f 14/14/14 3/3/3 13/13/13
f 6/6/6 15/15/15 14/14/14
f 17/17/17 9/9/9 16/16/16
f 17/17/17 16/16/16 18/18/18
f 20/20/20 11/11/11 19/19/19
f 21/21/21 20/20/20 19/19/19
f 19/19/19 11/11/11 22/22/22
f 22/22/22 23/23/23 19/19/19
f 23/23/23 24/24/24 19/19/19
f 24/24/24 21/21/21 19/19/19
