newmtl PurpCrystal
Kd 1 1 1
map_Kd C:\Users\dutoith\Documents\finalprojectopengl\RenderSystem\RenderSystem\Models\FlyingCrystal_Purp.png
map_Bump C:\Users\dutoith\Documents\finalprojectopengl\RenderSystem\RenderSystem\Models\FlyingCrystal_N.png
illum 2

