newmtl timber_1_fixed_d
Kd 0.7279412 0.6549994 0.5887759
map_Kd D:\Documents - data drive\finalprojectopengl\RenderSystem\RenderSystem\Models\timber_1_fixed_d.png
map_Bump D:\Documents - data drive\finalprojectopengl\RenderSystem\RenderSystem\Models\timber_1_fixed_n.png
illum 2

newmtl wooden-boards-texture_d
Kd 0.7867647 0.6718619 0.5264382
map_Kd D:\Documents - data drive\finalprojectopengl\RenderSystem\RenderSystem\Models\wooden-boards-texture_d.png
map_Bump D:\Documents - data drive\finalprojectopengl\RenderSystem\RenderSystem\Models\wooden-boards-texture_n.png
illum 2

newmtl shingle_1_d
Kd 1 1 1
map_Kd D:\Documents - data drive\finalprojectopengl\RenderSystem\RenderSystem\Models\shingle_1_d.png
map_Bump D:\Documents - data drive\finalprojectopengl\RenderSystem\RenderSystem\Models\shingle_1_n.png
illum 2

newmtl stone_wall_3_d
Kd 0.7573529 0.7016652 0.7016652
map_Kd D:\Documents - data drive\finalprojectopengl\RenderSystem\RenderSystem\Models\stone_wall_3_d.png
map_Bump D:\Documents - data drive\finalprojectopengl\RenderSystem\RenderSystem\Models\stone_wall_3_n.png
illum 2

newmtl granite_1_d
Kd 1 1 1
map_Kd D:\Documents - data drive\finalprojectopengl\RenderSystem\RenderSystem\Models\granite_1_d.png
map_Bump D:\Documents - data drive\finalprojectopengl\RenderSystem\RenderSystem\Models\granite_1_n.png
illum 2

newmtl timber_2_fixed_d
Kd 0.7333333 0.682353 0.5921569
map_Kd D:\Documents - data drive\finalprojectopengl\RenderSystem\RenderSystem\Models\timber_2_fixed_d.png
map_Bump D:\Documents - data drive\finalprojectopengl\RenderSystem\RenderSystem\Models\timber_2_fixed_n.png
illum 2

newmtl wood_1_d
Kd 1 0.740365 0.4117647
map_Kd D:\Documents - data drive\finalprojectopengl\RenderSystem\RenderSystem\Models\wood_1_d.png
map_Bump D:\Documents - data drive\finalprojectopengl\RenderSystem\RenderSystem\Models\wood_1_n.png
illum 2

newmtl stone_wall_1_d
Kd 0.5661765 0.5581375 0.5495242
map_Kd D:\Documents - data drive\finalprojectopengl\RenderSystem\RenderSystem\Models\stone_wall_1_d.png
map_Bump D:\Documents - data drive\finalprojectopengl\RenderSystem\RenderSystem\Models\stone_wall_1_n.png
illum 2

newmtl bark_2_d
Kd 0.4264706 0.4263841 0.4233348
map_Kd D:\Documents - data drive\finalprojectopengl\RenderSystem\RenderSystem\Models\bark_2_d.png
map_Bump D:\Documents - data drive\finalprojectopengl\RenderSystem\RenderSystem\Models\bark_2_n.png
illum 2

newmtl wood_3_d
Kd 0.7867647 0.6872621 0.5380082
map_Kd D:\Documents - data drive\finalprojectopengl\RenderSystem\RenderSystem\Models\wood_3_d.png
map_Bump D:\Documents - data drive\finalprojectopengl\RenderSystem\RenderSystem\Models\wood_3_n.png
illum 2

newmtl timber_1_fixed_dark
Kd 0.2426471 0.2426471 0.2426471
map_Kd D:\Documents - data drive\finalprojectopengl\RenderSystem\RenderSystem\Models\timber_1_fixed_d.png
map_Bump D:\Documents - data drive\finalprojectopengl\RenderSystem\RenderSystem\Models\timber_1_fixed_n.png
illum 2

newmtl canvas_d
Kd 0.7279412 0.2762633 0.2355104
map_Kd D:\Documents - data drive\finalprojectopengl\RenderSystem\RenderSystem\Models\canvas_d.png
map_Bump D:\Documents - data drive\finalprojectopengl\RenderSystem\RenderSystem\Models\canvas_n.png
illum 2

newmtl trunk_1_d
Kd 0.8 0.8 0.8
map_Kd D:\Documents - data drive\finalprojectopengl\RenderSystem\RenderSystem\Models\trunk_1_d.png
map_Bump D:\Documents - data drive\finalprojectopengl\RenderSystem\RenderSystem\Models\trunk_1_n.png
illum 2

newmtl cobblestone_wall_1_fixed_d
Kd 0.8970588 0.749308 0.7057742
map_Kd D:\Documents - data drive\finalprojectopengl\RenderSystem\RenderSystem\Models\cobblestone_wall_1_fixed_d.png
map_Bump D:\Documents - data drive\finalprojectopengl\RenderSystem\RenderSystem\Models\cobblestone_wall_1_fixed_n.png
illum 2

newmtl fabric_bag_2_d
Kd 0.625 0.625 0.625
map_Kd D:\Documents - data drive\finalprojectopengl\RenderSystem\RenderSystem\Models\fabric_bag_2_d.png
map_Bump D:\Documents - data drive\finalprojectopengl\RenderSystem\RenderSystem\Models\fabric_bag_1_n.png
illum 2

newmtl spice
Kd 0.7352941 0.2378893 0.1081315
map_Kd D:\Documents - data drive\finalprojectopengl\RenderSystem\RenderSystem\Models\spice_d.png
map_Bump D:\Documents - data drive\finalprojectopengl\RenderSystem\RenderSystem\Models\spice_n.png
illum 2

newmtl dark_iron
Kd 0.2941176 0.2941176 0.2941176
map_Kd D:\Documents - data drive\finalprojectopengl\RenderSystem\RenderSystem\Models\granite_1_d.png
map_Bump D:\Documents - data drive\finalprojectopengl\RenderSystem\RenderSystem\Models\granite_1_n.png
illum 2

newmtl wood_2_d
Kd 0.6397059 0.4964533 0.3151492
map_Kd D:\Documents - data drive\finalprojectopengl\RenderSystem\RenderSystem\Models\wood_2_d.png
map_Bump D:\Documents - data drive\finalprojectopengl\RenderSystem\RenderSystem\Models\wood_2_n.png
illum 2

newmtl Grass
Kd 0.4485294 0.3787936 0.310013
map_Kd D:\Documents - data drive\finalprojectopengl\RenderSystem\RenderSystem\Models\grass_1_fixed_d.png
map_Bump D:\Documents - data drive\finalprojectopengl\RenderSystem\RenderSystem\Models\grass_1_fixed_n.png
illum 2

newmtl dark_wood
Kd 0.1838235 0.1838235 0.1838235
map_Kd D:\Documents - data drive\finalprojectopengl\RenderSystem\RenderSystem\Models\wooden-boards-texture_d.png
map_Bump D:\Documents - data drive\finalprojectopengl\RenderSystem\RenderSystem\Models\wooden-boards-texture_n.png
illum 2

